[
  {
    "cardNumber": "8600000000000000",
    "ownerId": 616241032,
    "balance": 70000,
    "isDelete": false
  },
  {
    "cardNumber": "8600000000000001",
    "ownerId": 5579991911,
    "balance": 6000,
    "isDelete": false
  },
  {
    "cardNumber": "8600000000000003",
    "ownerId": 5033023657,
    "balance": 22000,
    "isDelete": false
  },
  {
    "cardNumber": "8600000000000004",
    "ownerId": 5441352205,
    "balance": 0,
    "isDelete": false
  }
]